<svg width="512" height="512" xmlns="http://www.w3.org/2000/svg">

 <g>
  <title>background</title>
  <rect fill="none" id="canvas_background" height="402" width="582" y="-1" x="-1"/>
 </g>
 <g>
  <title>Layer 1</title>
  <circle id="svg_3" r="256" fill="#eaeaea" cy="256" cx="256"/>
  <path id="svg_4" fill="#ffffff" d="m256,469.33386c-117.63147,0 -213.33333,-95.70187 -213.33333,-213.33334c0,-117.63092 95.70186,-213.33331 213.33333,-213.33331c117.63574,0 213.33334,95.7024 213.33334,213.33331c0,117.63147 -95.6976,213.33334 -213.33334,213.33334z"/>
  <path fill="#cce0e0" id="svg_5" opacity="0.3" d="m383.99786,215.89973l-23.73599,-23.73654l4.5264,-4.52639c6.7392,-6.7392 6.7392,-17.66559 0,-24.40481c-6.73975,-6.73973 -17.66562,-6.73973 -24.40534,0l-4.52639,4.5264l-23.73548,-23.73652l-24.44479,24.44532l-21.41333,-21.41439l-24.44428,24.44427l45.14933,45.15039l-70.34239,70.34082l0,0l-45.14933,-45.14828l-24.44374,24.44427l21.41333,21.41278l-24.44426,24.44428l23.73546,23.73495l-4.5264,4.52747c-6.73973,6.73971 -6.73973,17.6661 0,24.40533c6.73922,6.7392 17.66614,6.7392 24.40534,0l4.5264,-4.52588l23.69653,23.69547l24.47307,-24.41602l21.42454,21.42563l24.40586,-24.40533l-45.14986,-45.15042l0,0l70.38026,-70.3808l45.14987,45.15042l24.44425,-24.44428l-21.41385,-21.41441l24.44479,-24.44373z"/>
  <path id="svg_6" fill="#4bd1c3" d="m375.99786,207.89973l-23.73599,-23.73654l4.5264,-4.52639c6.7392,-6.7392 6.7392,-17.66561 0,-24.40481c-6.73975,-6.73973 -17.66559,-6.73973 -24.40534,0l-4.52639,4.5264l-23.73548,-23.73652l-24.44479,24.44532l-21.41333,-21.41439l-24.44428,24.44427l45.14933,45.15039l-70.34239,70.34082l0,0l-45.14933,-45.14828l-24.44374,24.44427l21.41333,21.41278l-24.44426,24.44428l23.73546,23.73495l-4.5264,4.52747c-6.73973,6.73971 -6.73973,17.6661 0,24.40533c6.73922,6.7392 17.66614,6.7392 24.40534,0l4.5264,-4.52588l23.69653,23.69547l24.47307,-24.41602l21.42453,21.42563l24.40587,-24.40533l-45.14986,-45.15042l0,0l70.38026,-70.3808l45.14987,45.15042l24.44425,-24.44428l-21.41385,-21.41441l24.44479,-24.44373z"/>
 </g>
</svg>