<svg width="512" height="512" xmlns="http://www.w3.org/2000/svg">

 <g>
  <title>background</title>
  <rect fill="none" id="canvas_background" height="402" width="582" y="-1" x="-1"/>
 </g>
 <g>
  <title>Layer 1</title>
  <circle id="svg_3" r="256" fill="#f4f4f4" cy="256" cx="256"/>
  <path id="svg_4" fill="#ffffff" d="m256,469.33386c-117.63092,0 -213.33333,-95.70187 -213.33333,-213.33334c0,-117.63092 95.70241,-213.33331 213.33333,-213.33331c117.63626,0 213.33331,95.7024 213.33331,213.33331c0,117.63147 -95.69705,213.33334 -213.33331,213.33334z"/>
  <path fill="#cccc88" id="svg_5" opacity="0.3" d="m214.87573,193.1248l-70.87571,70.8752l70.87571,70.87521l169.12427,0l0,-70.87521l0,-70.8752l-169.12427,0zm37.66773,75.87413l-10,0l0,-10l10,0l0,10zm21.45492,0l-10,0l0,-10l10,0l0,10zm21.46027,0l-10,0l0,-10l10,0l0,10zm21.45975,0l-10,0l0,-10l10,0l0,10zm21.45547,0l-10,0l0,-10l10,0l0,10z"/>
  <path id="svg_6" fill="#eeaf39" d="m206.87573,185.1248l-70.87571,70.8752l70.87571,70.87521l169.12427,0l0,-70.87521l0,-70.8752l-169.12427,0zm37.66773,75.87413l-10,0l0,-10l10,0l0,10zm21.45492,0l-9.99998,0l0,-10l9.99998,0l0,10zm21.46027,0l-10,0l0,-10l10,0l0,10zm21.45975,0l-10,0l0,-10l10,0l0,10zm21.45547,0l-10,0l0,-10l10,0l0,10z"/>
 </g>
</svg>