<svg width="512" height="512" xmlns="http://www.w3.org/2000/svg">

 <g>
  <title>background</title>
  <rect fill="none" id="canvas_background" height="402" width="582" y="-1" x="-1"/>
 </g>
 <g>
  <title>Layer 1</title>
  <circle id="svg_3" r="256" fill="#ffaa56" cy="256" cx="256"/>
  <path id="svg_4" fill="#ff7f00" d="m256,469.33386c-117.63094,0 -213.33333,-95.70239 -213.33333,-213.33334c0,-117.63146 95.70239,-213.33331 213.33333,-213.33331c117.63626,0 213.33334,95.70186 213.33334,213.33331c0,117.63095 -95.69708,213.33334 -213.33334,213.33334z"/>
  <path id="svg_6" opacity="0.3" d="m268.99948,175.11414l0,197.14294c37.64691,-16.73334 77.56479,-22.84161 115.00052,-17.48322c-0.0004,-65.71414 -0.0004,-131.42826 0,-197.14239c-37.43628,-5.35786 -77.35306,0.75093 -115.00052,17.48267zm94.47785,149.42611c-25.31946,-3.61545 -52.12427,0.80374 -77.52906,12.79575l-4.26828,-9.04321c27.18082,-12.82932 55.95734,-17.55359 83.21335,-13.6496l-1.41601,9.89706zm0,-40.08478c-25.31946,-3.61599 -52.12427,0.80054 -77.52906,12.79252l-4.26828,-9.04267c27.18082,-12.82986 55.95041,-17.54132 83.21335,-13.64746l-1.41601,9.89761zm0,-40.08801c-25.31946,-3.616 -52.12427,0.80535 -77.52906,12.7952l-4.26828,-9.04266c27.18082,-12.83201 55.95734,-17.54934 83.21335,-13.65014l-1.41601,9.8976zm0,-40.08586c-25.31946,-3.616 -52.12427,0.80586 -77.52906,12.79573l-4.26828,-9.0432c27.18082,-12.832 55.95734,-17.55146 83.21335,-13.64959l-1.41601,9.89706z"/>
  <path id="svg_7" opacity="0.3" d="m144,157.63147c0,65.71413 0,131.42825 0,197.14239c37.43626,-5.35839 77.35201,0.7504 114.99948,17.48322l0,-197.14294c-37.64694,-16.73174 -77.56322,-22.84053 -114.99948,-17.48267zm98.05173,179.70453c-25.4032,-11.99201 -52.20532,-16.40854 -77.52948,-12.79575l-1.41611,-9.89706c27.2704,-3.89652 56.04012,0.81763 83.2128,13.6496l-4.26721,9.04321zm0,-40.08801c-25.40532,-11.98984 -52.20532,-16.40107 -77.52948,-12.79252l-1.41611,-9.89761c27.25612,-3.89386 56.03519,0.8176 83.2128,13.64746l-4.26721,9.04267zm0,-40.08533c-25.4032,-11.99466 -52.20532,-16.40906 -77.52948,-12.7952l-1.41611,-9.8976c27.2704,-3.90399 56.04012,0.81974 83.2128,13.65014l-4.26721,9.04266zm4.26721,-49.12853l-4.26721,9.0432c-25.4032,-11.99254 -52.20533,-16.40373 -77.52948,-12.79573l-1.41611,-9.89706c27.2704,-3.90187 56.04012,0.82026 83.2128,13.64959z"/>
  <path id="svg_9" fill="#FFFFFF" d="m260.99948,167.11414l0,197.14294c37.64691,-16.73334 77.56479,-22.84161 115.00052,-17.48322c-0.0004,-65.71414 -0.0004,-131.42826 0,-197.14239c-37.43628,-5.35786 -77.35306,0.75093 -115.00052,17.48267zm94.47785,149.42611c-25.31946,-3.61545 -52.12427,0.80374 -77.52906,12.79575l-4.26828,-9.04321c27.18082,-12.82932 55.95734,-17.55359 83.21335,-13.6496l-1.41601,9.89706zm0,-40.08478c-25.31946,-3.61599 -52.12427,0.80054 -77.52906,12.79252l-4.26828,-9.04267c27.18082,-12.82986 55.95041,-17.54132 83.21335,-13.64746l-1.41601,9.89761zm0,-40.08801c-25.31946,-3.616 -52.12427,0.80535 -77.52906,12.79521l-4.26828,-9.04267c27.18082,-12.83201 55.95734,-17.54934 83.21335,-13.65014l-1.41601,9.8976zm0,-40.08586c-25.31946,-3.616 -52.12427,0.80586 -77.52906,12.79573l-4.26828,-9.0432c27.18082,-12.832 55.95734,-17.55146 83.21335,-13.64959l-1.41601,9.89706z"/>
  <path id="svg_10" fill="#FFFFFF" d="m136,149.63147c0,65.71413 0,131.42825 0,197.14239c37.43626,-5.35839 77.35201,0.7504 114.99947,17.48322l0,-197.14294c-37.64693,-16.73174 -77.56321,-22.84053 -114.99947,-17.48267zm98.05173,179.70453c-25.4032,-11.99201 -52.20532,-16.40854 -77.52948,-12.79575l-1.41611,-9.89706c27.2704,-3.89652 56.04012,0.81763 83.2128,13.6496l-4.26721,9.04321zm0,-40.08801c-25.40532,-11.98984 -52.20532,-16.40107 -77.52948,-12.79252l-1.41611,-9.89761c27.25612,-3.89386 56.03519,0.8176 83.2128,13.64746l-4.26721,9.04267zm0,-40.08532c-25.4032,-11.99467 -52.20532,-16.40907 -77.52948,-12.79521l-1.41611,-9.8976c27.2704,-3.90399 56.04012,0.81974 83.2128,13.65014l-4.26721,9.04267zm4.26721,-49.12854l-4.26721,9.0432c-25.4032,-11.99254 -52.20533,-16.40373 -77.52948,-12.79573l-1.41611,-9.89706c27.2704,-3.90187 56.04012,0.82026 83.2128,13.64959z"/>
 </g>
</svg>